{
  "defaultSeverity": "error",
  "extends": [
    "tslint:recommended",
    "tslint-config-airbnb"
  ],
  "jsRules": {},
  "rules": {
    "interface-name": [false],
    "no-console": [false],
    "quotemark": [true, "single"]
  },
  "rulesDirectory": []
}